{
  "GET_LIST": {
    "url": "customTable/list/EIR_OR_VOL_DISCOUNT_AGGR",
    "responseContainer": "tableData.record",
    "nestedContainer": "values",
    "keyColumn": "id",
    "options": {
      "method": "POST",
      "wildcardPrefixes": {
        "code": "wildcardOrIgnoreCase "
      }
    },
    "customTableCode": "EIR_OR_VOL_DISCOUNT_AGGR"
  },
  "GET_MANY": {
    "url": "customTable/list/EIR_OR_VOL_DISCOUNT_AGGR",
    "responseContainer": "tableData.record",
    "nestedContainer": "values",
    "keyColumn": "id",
    "options": {
      "method": "POST"
    },
    "customTableCode": "EIR_OR_VOL_DISCOUNT_AGGR"
  },
  "GET_ONE": {
    "url": "customTable/list/EIR_OR_VOL_DISCOUNT_AGGR",
    "responseContainer": "tableData.record",
    "nestedContainer": "values",
    "keyColumn": "id",
    "options": {
      "method": "POST"
    },
    "customTableCode": "EIR_OR_VOL_DISCOUNT_AGGR"
  }
}
