{
  "redirectAfterSubmit": "list",
  "main": {
    "tabs": [
      {
        "title": "details",
        "rows": [
          [
            {
              "source": "key"
            }
          ],
          [
            {
              "source": "value"
            }
          ],
          [
            {
              "source": "category"
            }
          ]
        ]
      }
    ]
  }
}
