{
  "GET_LIST": {
    "url": "provider",
    "responseContainer": "provider"
  },
  "GET_ONE": {
    "url": "provider?code=",
    "responseContainer": "provider"
  },
  "GET_MANY": {
    "url": "provider",
    "responseContainer": "provider"
  },
  "UPDATE": {
    "urls": [
      {
        "path": "../../inbound/exchangecodeused/check",
        "options": {
          "method": "POST"
        },
        "params": {
          "type": "EXCHANGE_DETAILS",
          "codeField": "Exchange_Code"
        }
      },
      {
        "path": "provider/updateProviderCF",
        "options": {
          "method": "PUT"
        }
      }
    ],
    "sync": true
  }
}
