{
  "GET_LIST": {
    "url": "filteredList/search",
    "params": {
      "classnamesOrCetCodes": "org.meveo.model.crm.Customer"
    }
  },
  "GET_ONE": {
    "url": "account/customer?customerCode=",
    "responseContainer": "customer"
  },
  "GET_MANY": {
    "url": "filteredList/search",
    "params": {
      "classnamesOrCetCodes": "org.meveo.model.crm.Customer"
    }
  },
  "UPDATE": {
    "url": "account/customer/createOrUpdate"
  }
}
