{
  "main": {
    "type": "dashboard",
    "rows": [
      [
        {
          "type": "SimpleWidget",
          "fields": [
            {
              "source": "code",
              "type": "text"
            },
            { "source": "description", "type": "text" }
          ]
        },
        {
          "type": "ActionWidget",
          "actions": ["edit", "delete"]
        }
      ]
    ]
  }
}
