{
  "GET_LIST": {
    "url": "customTable/list/portal__interface",
    "responseContainer": "tableData.record",
    "nestedContainer": "values",
    "keyColumn": "id",
    "options": {
      "method": "POST"
    }
  },
  "CREATE": {
    "url": "customTable/createOrUpdate",
    "params": {
      "customTableCode": "portal__config"
    }
  },
  "UPDATE": {
    "url": "customTable/createOrUpdate",
    "params": {
      "customTableCode": "portal__config"
    }
  }
}
