{
  "main": {
    "type": "SimpleList",
    "withSearch": {
      "source": "orderNumber"
    },
    "withExport": true,
    "withUpload": true,
    "withDelete": false,
    "tabField": "status",
    "initialTab": "PENDING",
    "onRowClick": false,

    "tabs": [
      {
        "id": "PENDING",
        "label": "Pending",
        "onRowClick": "show",
        "fields": [
          { "source": "orderNumber" },
          { "source": "system" },
          {
            "source": "orderDate",
            "type": "date",
            "showTime": true,
            "filter": true
          },
          {
            "type": "actions",
            "items": [
              {
                "action": "api",
                "verb": "UPDATE_STATUS",
                "label": "Reprocess order",
                "icon": "Send",
                "confirm": true,
                "inMenu": true,
                "params": { "Order_Id": "@record.code", "Status": "Pending" }
              },
              {
                "action": "api",
                "verb": "UPDATE_STATUS",
                "label": "Cancel order",
                "icon": "Cancel",
                "inMenu": true,
                "confirm": {
                  "fields": [
                    {
                      "source": "Cancel_Reason_Code",
                      "reference": "termination-reasons",
                      "label": "Termination code",
                      "validate": "required"
                    },
                    {
                      "source": "Cancel_Description",
                      "label": "Description",
                      "validate": "required"
                    }
                  ]
                },
                "params": { "Order_Id": "@record.code", "Status": "Cancelled" }
              }
            ]
          }
        ],
        "bulkCustomActions": [
          {
            "action": "api",
            "verb": "UPDATE_STATUS",
            "resource": "orders",
            "label": "Cancel orders",
            "icon": "Cancel",
            "inMenu": true,
            "accumulate": true,
            "confirm": {
              "fields": [
                {
                  "source": "Cancel_Reason_Code",
                  "reference": "termination-reasons",
                  "label": "Termination code",
                  "validate": "required"
                },
                {
                  "source": "Cancel_Description",
                  "label": "Description",
                  "validate": "required"
                }
              ]
            },
            "params": {
              "Order_Id": "@selectedItem.code",
              "Status": "Cancelled"
            }
          },
          {
            "action": "api",
            "verb": "UPDATE_STATUS",
            "resource": "orders",
            "label": "Reprocess orders",
            "icon": "Send",
            "accumulate": true,
            "confirm": true,
            "inMenu": true,
            "params": { "Order_Id": "@selectedItem.code", "Status": "Pending" }
          },
          {
            "action": "api",
            "resource": "orders",
            "verb": "EXPORT_FILE",
            "label": "Export orders",
            "isFile": true,
            "accumulate": false,
            "icon": "GetApp",
            "confirm": {
              "label": "Export orders",
              "fields": [
                {
                  "source": "fileType",
                  "type": "static-list",
                  "validate": "required",
                  "choices": [
                    { "id": "csv", "label": "CSV" },
                    { "id": "xml", "label": "XML" }
                  ]
                }
              ]
            },
            "params": {
              "orderIds": "@selectedItems.code"
            }
          }
        ]
      },
      {
        "id": "COMPLETED",
        "onRowClick": "show",
        "label": "Completed",

        "fields": [
          { "source": "orderNumber" },
          { "source": "system" },
          {
            "source": "orderDate",
            "type": "date",
            "showTime": true,
            "filter": true
          },
          {
            "type": "actions",
            "items": []
          }
        ],
        "bulkCustomActions": [
          {
            "action": "api",
            "resource": "orders",
            "verb": "EXPORT_FILE",
            "label": "Export orders",
            "isFile": true,
            "accumulate": false,
            "icon": "GetApp",
            "confirm": {
              "label": "Export orders",
              "fields": [
                {
                  "source": "fileType",
                  "type": "static-list",
                  "validate": "required",
                  "choices": [
                    { "id": "csv", "label": "CSV" },
                    { "id": "xml", "label": "XML" }
                  ]
                }
              ]
            },
            "params": {
              "orderIds": "@selectedItems.code"
            }
          }
        ]
      },
      {
        "id": "REJECTED",
        "label": "Rejected",
        "onRowClick": "show",
        "fields": [
          { "source": "orderNumber" },
          { "source": "system" },
          { "source": "orderDate", "type": "date", "showTime": true },
          { "source": "errorMessage" },
          {
            "type": "actions",
            "items": [
              {
                "action": "api",
                "verb": "UPDATE_STATUS",
                "label": "Reprocess order",
                "icon": "Send",
                "confirm": true,
                "inMenu": true,
                "params": { "Order_Id": "@record.code", "Status": "Pending" }
              },
              {
                "action": "api",
                "verb": "UPDATE_STATUS",
                "label": "Wait order",
                "icon": "Pause",
                "confirm": true,
                "inMenu": true,
                "params": { "Order_Id": "@record.code", "Status": "Waiting" }
              },
              {
                "action": "api",
                "verb": "UPDATE_STATUS",
                "label": "Cancel order",
                "icon": "Cancel",
                "inMenu": true,
                "confirm": {
                  "fields": [
                    {
                      "source": "Cancel_Reason_Code",
                      "reference": "termination-reasons",
                      "label": "Termination code",
                      "validate": "required"
                    },
                    {
                      "source": "Cancel_Description",
                      "label": "Description",
                      "validate": "required"
                    }
                  ]
                },
                "params": { "Order_Id": "@record.code", "Status": "Cancelled" }
              }
            ]
          }
        ],
        "bulkCustomActions": [
          {
            "action": "api",
            "verb": "UPDATE_STATUS",
            "resource": "orders",
            "label": "Cancel orders",
            "icon": "Cancel",
            "inMenu": true,
            "accumulate": true,
            "confirm": {
              "fields": [
                {
                  "source": "Cancel_Reason_Code",
                  "reference": "termination-reasons",
                  "label": "Termination code",
                  "validate": "required"
                },
                {
                  "source": "Cancel_Description",
                  "label": "Description",
                  "validate": "required"
                }
              ]
            },
            "params": {
              "Order_Id": "@selectedItem.code",
              "Status": "Cancelled"
            }
          },
          {
            "action": "api",
            "verb": "UPDATE_STATUS",
            "resource": "orders",
            "label": "Reprocess orders",
            "icon": "Send",
            "accumulate": true,
            "confirm": true,
            "inMenu": true,
            "params": { "Order_Id": "@selectedItem.code", "Status": "Pending" }
          },
          {
            "action": "api",
            "resource": "orders",
            "verb": "EXPORT_FILE",
            "label": "Export orders",
            "isFile": true,
            "accumulate": false,
            "icon": "GetApp",
            "confirm": {
              "label": "Export orders",
              "fields": [
                {
                  "source": "fileType",
                  "type": "static-list",
                  "validate": "required",
                  "choices": [
                    { "id": "csv", "label": "CSV" },
                    { "id": "xml", "label": "XML" }
                  ]
                }
              ]
            },
            "params": {
              "orderIds": "@selectedItems.code"
            }
          }
        ]
      },
      {
        "id": "WAITING",
        "label": "Waiting",
        "onRowClick": "show",
        "nestedDataFilter": {
          "status": "WAITING"
        },
        "fields": [
          { "source": "orderNumber" },
          { "source": "system" },
          { "source": "orderDate", "type": "date", "showTime": true },
          { "source": "statusMessage" },
          {
            "type": "actions",
            "items": [
              {
                "action": "api",
                "verb": "UPDATE_STATUS",
                "label": "Reprocess order",
                "icon": "Send",
                "confirm": true,
                "inMenu": true,
                "params": { "Order_Id": "@record.code", "Status": "Pending" }
              },
              {
                "action": "api",
                "verb": "UPDATE_STATUS",
                "label": "Release Order",
                "roles": ["Order_Manager"],
                "icon": "Send",
                "inMenu": true,
                "params": { "Order_Id": "@record.code", "Status": "RELEASED" },
                "confirm": {
                  "fields": [
                    {
                      "source": "Release_Description",
                      "label": "Description"
                    }
                  ]
                }
              },
              {
                "action": "api",
                "verb": "UPDATE_STATUS",
                "label": "Cancel order",
                "icon": "Cancel",
                "inMenu": true,
                "confirm": {
                  "fields": [
                    {
                      "source": "Cancel_Reason_Code",
                      "reference": "termination-reasons",
                      "label": "Termination code",
                      "validate": "required"
                    },
                    {
                      "source": "Cancel_Description",
                      "label": "Description",
                      "validate": "required"
                    }
                  ]
                },
                "params": { "Order_Id": "@record.code", "Status": "Cancelled" }
              }
            ]
          }
        ],
        "bulkCustomActions": [
          {
            "action": "api",
            "verb": "UPDATE_STATUS",
            "resource": "orders",
            "label": "Cancel orders",
            "icon": "Cancel",
            "inMenu": true,
            "accumulate": true,
            "confirm": {
              "fields": [
                {
                  "source": "Cancel_Reason_Code",
                  "reference": "termination-reasons",
                  "label": "Termination code",
                  "validate": "required"
                },
                {
                  "source": "Cancel_Description",
                  "label": "Description",
                  "validate": "required"
                }
              ]
            },
            "params": {
              "Order_Id": "@selectedItem.code",
              "Status": "Cancelled"
            }
          },
          {
            "action": "api",
            "verb": "UPDATE_STATUS",
            "resource": "orders",
            "label": "Reprocess orders",
            "icon": "Send",
            "accumulate": true,
            "confirm": true,
            "inMenu": true,
            "params": { "Order_Id": "@selectedItem.code", "Status": "Pending" }
          },
          {
            "action": "api",
            "resource": "orders",
            "verb": "EXPORT_FILE",
            "label": "Export orders",
            "isFile": true,
            "accumulate": false,
            "icon": "GetApp",
            "confirm": {
              "label": "Export orders",
              "fields": [
                {
                  "source": "fileType",
                  "type": "static-list",
                  "validate": "required",
                  "choices": [
                    { "id": "csv", "label": "CSV" },
                    { "id": "xml", "label": "XML" }
                  ]
                }
              ]
            },
            "params": {
              "orderIds": "@selectedItems.code"
            }
          }
        ]
      },
      {
        "id": "HELD",
        "label": "On Hold",
        "onRowClick": "show",
        "nestedDataFilter": {
          "status": "HELD"
        },
        "fields": [
          { "source": "orderNumber" },
          { "source": "system" },
          { "source": "orderDate", "type": "date", "showTime": true },
          { "source": "statusMessage" },
          {
            "type": "actions",
            "items": [
              {
                "action": "api",
                "verb": "UPDATE_STATUS",
                "label": "Reprocess order",
                "icon": "Send",
                "confirm": true,
                "inMenu": true,
                "params": { "Order_Id": "@record.code", "Status": "Pending" }
              },
              {
                "action": "api",
                "verb": "UPDATE_STATUS",
                "label": "Release Order",
                "roles": ["Order_Manager"],
                "icon": "Send",
                "inMenu": true,
                "params": { "Order_Id": "@record.code", "Status": "RELEASED" },
                "confirm": {
                  "fields": [
                    {
                      "source": "Release_Description",
                      "label": "Description"
                    }
                  ]
                }
              },
              {
                "action": "api",
                "verb": "UPDATE_STATUS",
                "label": "Cancel order",
                "icon": "Cancel",
                "inMenu": true,
                "confirm": {
                  "fields": [
                    {
                      "source": "Cancel_Reason_Code",
                      "reference": "termination-reasons",
                      "label": "Termination code",
                      "validate": "required"
                    },
                    {
                      "source": "Cancel_Description",
                      "label": "Description",
                      "validate": "required"
                    }
                  ]
                },
                "params": { "Order_Id": "@record.code", "Status": "Cancelled" }
              }
            ]
          }
        ],
        "bulkCustomActions": [
          {
            "action": "api",
            "verb": "UPDATE_STATUS",
            "resource": "orders",
            "label": "Cancel orders",
            "icon": "Cancel",
            "inMenu": true,
            "accumulate": true,
            "confirm": {
              "fields": [
                {
                  "source": "Cancel_Reason_Code",
                  "reference": "termination-reasons",
                  "label": "Termination code",
                  "validate": "required"
                },
                {
                  "source": "Cancel_Description",
                  "label": "Description",
                  "validate": "required"
                }
              ]
            },
            "params": {
              "Order_Id": "@selectedItem.code",
              "Status": "Cancelled"
            }
          },
          {
            "action": "api",
            "verb": "UPDATE_STATUS",
            "resource": "orders",
            "label": "Reprocess orders",
            "icon": "Send",
            "accumulate": true,
            "confirm": true,
            "inMenu": true,
            "params": { "Order_Id": "@selectedItem.code", "Status": "Pending" }
          },
          {
            "action": "api",
            "resource": "orders",
            "verb": "EXPORT_FILE",
            "label": "Export orders",
            "isFile": true,
            "accumulate": false,
            "icon": "GetApp",
            "confirm": {
              "label": "Export orders",
              "fields": [
                {
                  "source": "fileType",
                  "type": "static-list",
                  "validate": "required",
                  "choices": [
                    { "id": "csv", "label": "CSV" },
                    { "id": "xml", "label": "XML" }
                  ]
                }
              ]
            },
            "params": {
              "orderIds": "@selectedItems.code"
            }
          }
        ]
      },
      {
        "id": "DEFERRED",
        "label": "Deffered",
        "onRowClick": "show",
        "nestedDataFilter": {
          "status": "DEFERRED"
        },
        "fields": [
          { "source": "orderNumber" },
          { "source": "system" },
          { "source": "orderDate", "type": "date", "showTime": true },
          { "source": "statusMessage" },
          {
            "type": "actions",
            "items": [
              {
                "action": "api",
                "verb": "UPDATE_STATUS",
                "label": "Reprocess order",
                "icon": "Send",
                "confirm": true,
                "inMenu": true,
                "params": { "Order_Id": "@record.code", "Status": "Pending" }
              },
              {
                "action": "api",
                "verb": "UPDATE_STATUS",
                "label": "Release Order",
                "roles": ["Order_Manager"],
                "icon": "Send",
                "inMenu": true,
                "params": { "Order_Id": "@record.code", "Status": "RELEASED" },
                "confirm": {
                  "fields": [
                    {
                      "source": "Release_Description",
                      "label": "Description"
                    }
                  ]
                }
              },
              {
                "action": "api",
                "verb": "UPDATE_STATUS",
                "label": "Cancel order",
                "icon": "Cancel",
                "inMenu": true,
                "confirm": {
                  "fields": [
                    {
                      "source": "Cancel_Reason_Code",
                      "reference": "termination-reasons",
                      "label": "Termination code",
                      "validate": "required"
                    },
                    {
                      "source": "Cancel_Description",
                      "label": "Description",
                      "validate": "required"
                    }
                  ]
                },
                "params": { "Order_Id": "@record.code", "Status": "Cancelled" }
              }
            ]
          }
        ],
        "bulkCustomActions": [
          {
            "action": "api",
            "verb": "UPDATE_STATUS",
            "resource": "orders",
            "label": "Cancel orders",
            "icon": "Cancel",
            "inMenu": true,
            "accumulate": true,
            "confirm": {
              "fields": [
                {
                  "source": "Cancel_Reason_Code",
                  "reference": "termination-reasons",
                  "label": "Termination code",
                  "validate": "required"
                },
                {
                  "source": "Cancel_Description",
                  "label": "Description",
                  "validate": "required"
                }
              ]
            },
            "params": {
              "Order_Id": "@selectedItem.code",
              "Status": "Cancelled"
            }
          },
          {
            "action": "api",
            "verb": "UPDATE_STATUS",
            "resource": "orders",
            "label": "Reprocess orders",
            "icon": "Send",
            "accumulate": true,
            "confirm": true,
            "inMenu": true,
            "params": { "Order_Id": "@selectedItem.code", "Status": "Pending" }
          },
          {
            "action": "api",
            "resource": "orders",
            "verb": "EXPORT_FILE",
            "label": "Export orders",
            "isFile": true,
            "accumulate": false,
            "icon": "GetApp",
            "confirm": {
              "label": "Export orders",
              "fields": [
                {
                  "source": "fileType",
                  "type": "static-list",
                  "validate": "required",
                  "choices": [
                    { "id": "csv", "label": "CSV" },
                    { "id": "xml", "label": "XML" }
                  ]
                }
              ]
            },
            "params": {
              "orderIds": "@selectedItems.code"
            }
          }
        ]
      },
      {
        "id": "CANCELLED",
        "label": "Cancelled",
        "onRowClick": "show",
        "fields": [
          { "source": "orderNumber" },
          { "source": "system" },
          { "source": "orderDate", "type": "date", "showTime": true },
          { "source": "statusMessage" },
          { "source": "author" },
          { "source": "cancelDate" },
          { "source": "cancelReason" },
          { "source": "cancelDescription" },
          {
            "type": "actions",
            "items": []
          }
        ],
        "bulkCustomActions": [
          {
            "action": "api",
            "verb": "UPDATE_STATUS",
            "resource": "orders",
            "label": "Reprocess orders",
            "icon": "Send",
            "accumulate": true,
            "confirm": true,
            "inMenu": true,
            "params": { "Order_Id": "@selectedItem.code", "Status": "Pending" }
          },
          {
            "action": "api",
            "resource": "orders",
            "verb": "EXPORT_FILE",
            "label": "Export orders",
            "isFile": true,
            "accumulate": false,
            "icon": "GetApp",
            "confirm": {
              "label": "Export orders",
              "fields": [
                {
                  "source": "fileType",
                  "type": "static-list",
                  "validate": "required",
                  "choices": [
                    { "id": "csv", "label": "CSV" },
                    { "id": "xml", "label": "XML" }
                  ]
                }
              ]
            },
            "params": {
              "orderIds": "@selectedItems.code"
            }
          }
        ]
      }
    ]
  }
}
