{
  "main": {
    "type": "SimpleList",
    "withSearch": true,
    "withExport": true,
    "withCreate": true,
    "withUpload": true,
    "onRowClick": "show",
    "fields": [
      { "source": "code" },
      { "source": "description" },
      { "source": "status" }
    ]
  }
}
