{
  "GET_LIST": {
    "url": "v2/generic/all/customer",
    "responseContainer": "data",
    "bodyParams": {
      "nestedEntities": [],
      "genericFields": []
    }
  },
  "GET_ONE": {
    "url": "v2/generic/customer/",
    "responseContainer": "data"
  },
  "GET_MANY": {
    "url": "filteredList/search",
    "params": {
      "classnamesOrCetCodes": "org.meveo.model.crm.Customer"
    }
  },
  "CREATE": {
    "url": "account/customer"
  },
  "UPDATE": {
    "url": "account/customer/createOrUpdate"
  },
  "DELETE": {
    "url": "account/customer/"
  },
  "DELETE_MANY": {
    "url": "account/customer/"
  },
  "UPLOAD_FILE": {
    "urls": [
      {
        "path": "admin/files/upload",
        "options": {
          "method": "POST"
        }
      },
      {
        "path": "job/execute",
        "options": {
          "method": "POST"
        },
        "bodyParams": {
          "code": "CreateAccountsJob"
        }
      }
    ]
  }
}
