{
  "GET_LIST": {
    "url": "customTable/list/EIR_U_TARIFF",
    "responseContainer": "tableData.record",
    "nestedContainer": "values",
    "keyColumn": "id",
    "options": {
      "method": "POST",
      "wildcardPrefixes": {
        "description": "wildcardOrIgnoreCase ",
        "filename": "wildcardOrIgnoreCase ",
        "updated_by": "wildcardOrIgnoreCase "
      }
    },
    "customTableCode": "EIR_U_TARIFF"
  }
}
