{
  "GET_LIST": {
    "url": "invoiceSequence/list",
    "responseContainer": "invoiceSequencesDto.invoiceSequences"
  },
  "GET_ONE": {
    "url": "invoiceSequence?invoiceSequenceCode=",
    "responseContainer": "invoiceSequenceDto"
  },
  "CREATE": {
    "url": "invoiceSequence/createOrUpdate"
  },
  "UPDATE": {
    "url": "invoiceSequence/createOrUpdate"
  },
  "DELETE": {
    "url": "invoiceSequence"
  },
  "GET_MANY": {
    "url": "invoiceSequence/list",
    "responseContainer": "invoiceSequencesDto.invoiceSequences"
  }
}
