{
  "GET_ONE": {
    "url": "catalog/chargeTemplate?chargeTemplateCode=",
    "responseContainer": "chargeTemplate"
  },
  "GET_MANY": {
    "url": "filteredList/search",
    "params": {
      "classnamesOrCetCodes": "org.meveo.model.catalog.ChargeTemplate"
    }
  }
}
