{
  "GET_LIST": {
    "url": "catalog/offerTemplate/list",
    "responseContainer": "offerTemplate"
  },
  "GET_ONE": {
    "url": "catalog/offerTemplate?loadOfferServiceTemplate=true&loadServiceChargeTemplate=true&offerTemplateCode=",
    "responseContainer": "offerTemplate"
  },
  "GET_MANY": {
    "url": "catalog/offerTemplate/list",
    "responseContainer": "offerTemplate"
  },
  "CREATE": {
    "url": "catalog/offerTemplate/createOrUpdate"
  },
  "DELETE": {
    "url": "catalog/offerTemplate/"
  },
  "DELETE_MANY": {
    "url": "catalog/offerTemplate/"
  },
  "UPDATE": {
    "url": "catalog/offerTemplate/createOrUpdate",
    "wrapProperties": [
      "offerServiceTemplate:offerServiceTemplate.serviceTemplate"
    ]
  },
  "SERVICES_TEMPLATE": {
    "url": "catalog/offerTemplate",
    "responseContainer": "offerTemplate.offerServiceTemplate.serviceTemplate",
    "nestedField": "serviceTemplate",
    "params": {
      "loadOfferServiceTemplate": true,
      "offerTemplateCode": "@record.offerTemplate"
    },
    "options": {
      "method": "GET"
    }
  },
  "OFFER_TEMPLATE": {
    "url": "catalog/offerTemplate/list",
    "options": {
      "method": "GET"
    }
  },
  "ACTIVATE_SERVICES": {
    "url": "billing/subscription/activateServices",
    "options": {
      "method": "POST"
    }
  },
  "SUSPEND_SERVICES": {
    "url": "billing/subscription/suspendServices",
    "options": {
      "method": "PUT"
    }
  },
  "TERMINATE_SERVICES": {
    "url": "billing/subscription/terminateServices"
  },
  "UPDATE_SERVICES": {
    "url": "billing/subscription/updateServices",
    "options": {
      "method": "PUT"
    }
  },
  "RESUME_SERVICES": {
    "url": "billing/subscription/resumeServices",
    "options": {
      "method": "PUT"
    }
  }
}
