{
  "redirectAfterSubmit": "list",
  "main": {
    "rows": [
      [
        {
          "source": "code",
          "validate": "required",
          "disabledOnEdit": true
        }
      ],
      [
        {
          "source": "description",
          "validate": "required"
        }
      ]
    ]
  }
}
