{
  "accountOperations": {
    "CF.STRING.BILLING_ACCOUNT_CODE": "billingAccountName",
    "CF.STRING.ORIGINAL_UNMATCHED_ACCOUNT_NUMBER": "accountNumber",
    "CF.STRING.PAYMENT_FILE_NAME": "paymentFileName",
    "CF.STRING.FROM_BILLING_ACCOUNT_CODE": "fromBillingAccount",
    "CF.STRING.TO_BILLING_ACCOUNT_CODE": "toBillingAccount",
    "CF.VALUE.TAX_RATES_PERCENT": "percent"
  }
}
