{
  "GET_LIST": {
    "url": "customTable/list/EIR_U_TARIFF_PLAN",
    "responseContainer": "tableData.record",
    "nestedContainer": "values",
    "keyColumn": "id",
    "options": {
      "method": "POST",
      "wildcardPrefixes": {
        "code": "wildcardOrIgnoreCase ",
        "description": "wildcardOrIgnoreCase ",
        "rounding_mode": "wildcardOrIgnoreCase ",
        "rounding": "wildcardOrIgnoreCase "
      }
    },
    "customTableCode": "EIR_U_TARIFF_PLAN"
  },
  "CREATE": {
    "url": "customTable/createOrUpdate",
    "customTableCode": "EIR_U_TARIFF_PLAN"
  },
  "GET_ONE": {
    "url": "customTable/list/EIR_U_TARIFF_PLAN",
    "responseContainer": "tableData.record",
    "nestedContainer": "values",
    "keyColumn": "id",
    "options": {
      "method": "POST"
    },
    "customTableCode": "EIR_U_TARIFF_PLAN"
  },
  "UPDATE": {
    "url": "customTable/createOrUpdate",
    "customTableCode": "EIR_U_TARIFF_PLAN"
  }
}
