{
  "GET_LIST": {
    "url": "billing/accountingCode/list",
    "responseContainer": "accountingCodes"
  },
  "GET_ONE": {
    "url": "billing/accountingCode?accountingCode=",
    "responseContainer": "accountingCode"
  },
  "GET_MANY": {
    "url": "billing/accountingCode/list",
    "responseContainer": "accountingCodes"
  },
  "CREATE": {
    "url": "billing/accountingCode"
  },
  "UPDATE": {
    "url": "billing/accountingCode/createOrUpdate"
  },
  "DELETE": {
    "urls": [
      {
        "path": "../../inbound/glcode/check",
        "options": {
          "method": "POST"
        },
        "params": {
          "type": "GL_CODE"
        }
      },
      {
        "path": "billing/accountingCode/"
      }
    ],
    "sync": true
  },
  "DELETE_MANY": {
    "urls": [
      {
        "path": "../../inbound/glcode/check",
        "options": {
          "method": "POST"
        },
        "params": {
          "type": "GL_CODE"
        }
      },
      {
        "path": "billing/accountingCode/"
      }
    ],
    "sync": true
  }
}
