{
  "GET_LIST": {
    "url": "filteredList/search",
    "params": {
      "classnamesOrCetCodes": "org.meveo.model.catalog.OfferTemplateCategory"
    }
  },
  "GET_ONE": {
    "url": "catalog/offerTemplateCategory?offerTemplateCategoryCode=",
    "responseContainer": "offerTemplateCategory"
  },
  "GET_MANY": {
    "url": "filteredList/search",
    "params": {
      "classnamesOrCetCodes": "org.meveo.model.catalog.OfferTemplateCategory"
    }
  }
}
