{
  "main": {
    "type": "SimpleList",
    "withSearch": true,
    "withExport": true,
    "withCreate": true,
    "onRowClick": "edit",
    "fields": [
      { "source": "code" },
      { "source": "description" },
      {
        "source": "applyAgreement",
        "type": "boolean",
        "label": "Apply agreement"
      },
      {
        "source": "applyReimbursment",
        "type": "boolean",
        "label": "Apply reimbursment"
      },
      {
        "source": "applyTerminationCharges",
        "type": "boolean",
        "label": "Apply termination charges"
      }
    ]
  }
}
