{
  "header": {
    "rows": [
      {
        "type": "SimpleWidget",
        "fields": [
          {
            "source": "customer"
          },
          {
            "source": "created",
            "type": "date"
          },
          {
            "source": "dateStatus",
            "type": "date"
          },
          {
            "source": "accountBalance"
          },
          {
            "source": "balance"
          },
          {
            "source": "dunningLevel"
          },
          {
            "source": "dateDunningLevel",
            "type": "date"
          },
          {
            "source": "lastPayment",
            "type": "date"
          }
        ]
      }
    ]
  },
  "footer": {
    "rows": [
      [
        {
          "type": "CustomFieldsFormWidget",
          "title": "Champs personnalisés",
          "source": "customerAccountsCFsForm"
        }
      ],
      [
        {
          "type": "DetailedListWidget",
          "title": "Derniers paiements",
          "content": {
            "type": "SimpleTable",
            "reference": "account-operations",
            "source": "customerAccount.code:@record.code",
            "customActions": [
              {
                "href": "/account-operations/create",
                "label": "Gérer le compte et les paiements",
                "forwardRecord": true
              }
            ],
            "fields": [
              {
                "source": "type",
                "label": "Type"
              },
              {
                "source": "occDescription",
                "label": "Description"
              },
              {
                "source": "reference",
                "label": "Numéro de facture"
              },
              {
                "source": "transactionDate",
                "label": "Date",
                "type": "date",
                "dateFormat": "YYYY-MM-DD"
              },
              {
                "source": "dueDate",
                "type": "date",
                "dateFormat": "YYYY-MM-DD",
                "label": "Date de fin"
              },
              {
                "source": "matchingAmount",
                "label": "Debit"
              },
              {
                "source": "amount",
                "label": "Credit"
              },
              {
                "source": "unMatchingAmount",
                "label": "Non lettré"
              },
              {
                "source": "matchingStatus",
                "label": "Lettrage"
              },
              {
                "source": "excludedFromDunning",
                "label": "Exclu",
                "type": "boolean"
              },
              {
                "source": "operation",
                "label": "Operation"
              },
              {
                "source": "operationDate",
                "label": "Date de l'operation",
                "type": "date"
              },
              {
                "type": "actions",
                "label": "Télécharger le reçu",
                "items": [
                  {
                    "action": "api",
                    "verb": "DOWNLOAD_RECEIPT",
                    "label": "Télécharger le reçu",
                    "icon": "AttachFile",
                    "resource": "subscriptions",
                    "source": "pdfFilename",
                    "isFile": true,
                    "params": {
                      "customerExternalCode": "@record.code"
                    }
                  }
                ]
              }
            ]
          }
        }
      ],
      [
        {
          "type": "DetailedListWidget",
          "title": "Factures, Charges & Usages",
          "content": [
            {
              "title": "Factures",
              "withCreate": true,
              "content": {
                "type": "SimpleTable",
                "reference": "subscriptions",
                "source": "userAccount.billingAccount.customerAccount.code:@record.code",
                "customActions": [
                  {
                    "href": "/billing-accounts/create",
                    "label": "Ajouter un compte de facturation",
                    "forwardRecord": true
                  },
                  {
                    "href": "/subscriptions/create",
                    "label": "Ajouter une souscription",
                    "forwardRecord": true
                  }
                ],
                "fields": [
                  {
                    "source": "code",
                    "filter": true
                  },
                  {
                    "source": "userAccount",
                    "linkType": "edit"
                  },
                  {
                    "source": "offerTemplate",
                    "reference": "offers",
                    "referenceField": "name"
                  },
                  {
                    "source": "statusDate",
                    "type": "date"
                  },
                  {
                    "source": "subscriptionDate",
                    "type": "date"
                  },
                  {
                    "source": "terminationDate",
                    "type": "date"
                  },
                  {
                    "source": "subscribedTillDate",
                    "type": "date"
                  },
                  {
                    "source": "status"
                  },
                  {
                    "type": "actions",
                    "label": "Résiliation",
                    "items": [
                      {
                        "action": "api",
                        "verb": "TERMINATE_SUBSCRIPTION",
                        "label": "Résiliation de souscription",
                        "icon": "Cancel",
                        "resource": "termination-reasons",
                        "confirm": {
                          "fields": [
                            {
                              "source": "subscriptionCode",
                              "label": "Souscription ID",
                              "validate": "required"
                            },
                            {
                              "source": "terminationDate",
                              "label": "Date de résiliation",
                              "validate": "required",
                              "type": "date"
                            },
                            {
                              "source": "terminationReason",
                              "reference": "termination-reasons",
                              "label": "Raison de résiliation",
                              "validate": "required"
                            }
                          ]
                        }
                      }
                    ]
                  },
                  {
                    "type": "actions",
                    "label": "Pro-Forma",
                    "items": [
                      {
                        "action": "api",
                        "verb": "GENERATE_DRAFT_INVOICE",
                        "label": "Pro-Forma",
                        "icon": "CloudDownload",
                        "source": "pdfFilename",
                        "isFile": true,
                        "params": {
                          "generateInvoiceResultDto": "@record.invoiceId"
                        }
                      }
                    ]
                  },
                  {
                    "type": "actions",
                    "label": "Supplément",
                    "items": [
                      {
                        "verb": " APPLY_ONE_SHOT_CHARGE_INSTANCE",
                        "label": "Détails de la charge exceptionnelle",
                        "icon": "Edit",
                        "resource": "subscriptions",
                        "confirm": {
                          "fields": [
                            {
                              "source": "oneShotCharge",
                              "label": "Charge ponctuelles",
                              "validate": "required"
                            },
                            {
                              "source": "operationDate",
                              "label": "Date Operation",
                              "validate": "required",
                              "type": "date"
                            },
                            {
                              "source": "description",
                              "label": "Description"
                            },
                            {
                              "source": "quantity",
                              "label": "quantité"
                            },
                            {
                              "source": "amountWithTax",
                              "label": "Montant TTC"
                            }
                          ]
                        }
                      }
                    ]
                  },
                  {
                    "type": "actions",
                    "label": "Fact. except.",
                    "items": [
                      {
                        "verb": "GENERATE_INVOICE",
                        "label": "Fact. except.",
                        "icon": "Beenhere",
                        "confirm": {
                          "fields": [
                            {
                              "source": "invoicingDate",
                              "label": "Date de facturation",
                              "validate": "required",
                              "type": "date"
                            },
                            {
                              "source": "lastTransactionDate",
                              "label": "Date de dernière transaction",
                              "validate": "required",
                              "type": "date"
                            }
                          ]
                        }
                      }
                    ]
                  },
                  {
                    "type": "actions",
                    "label": "Télécharger le reçu",
                    "items": [
                      {
                        "action": "api",
                        "verb": "DOWNLOAD_RECEIPT",
                        "label": "Télécharger le reçu",
                        "icon": "AttachFile",
                        "resource": "subscriptions",
                        "source": "pdfFilename",
                        "isFile": true,
                        "params": {
                          "customerExternalCode": "@record.code"
                        }
                      }
                    ]
                  },
                  {
                    "type": "actions",
                    "label": "Résiliation des charges",
                    "items": [
                      {
                        "action": "api",
                        "verb": "",
                        "label": "",
                        "icon": "Cancel",
                        "resource": ""
                      }
                    ]
                  }
                ]
              }
            },
            {
              "reference": "charges",
              "source": "walletOperations",
              "title": "Toutes charges",
              "content": {
                "type": "SimpleTable",
                "source": "charges",
                "fields": [
                  {
                    "source": "operationDate",
                    "type": "date"
                  },
                  {
                    "source": "endDate",
                    "type": "date"
                  },
                  {
                    "source": "code"
                  },
                  {
                    "source": "quantity"
                  },
                  {
                    "source": "amountWithoutTax"
                  },
                  {
                    "source": "amountWithTax"
                  },
                  {
                    "source": "status"
                  }
                ]
              }
            },
            {
              "reference": "usages",
              "source": "walletOperations",
              "title": "Usages",
              "content": {
                "type": "SimpleTable",
                "source": "usages",
                "fields": [
                  {
                    "source": "code"
                  }
                ]
              }
            }
          ]
        }
      ],
      [
        {
          "type": "DetailedListWidget",
          "title": "Méthodes de paiement",
          "content": {
            "type": "SimpleTable",
            "source": "methodOfPayment",
            "fields": [
              {
                "source": "id",
                "label": "Alias"
              },
              {
                "source": "paymentMethodType",
                "label": "Méthode de paiement"
              },
              {
                "source": "preferred",
                "label": "Méthode préférée",
                "type": "boolean"
              }
            ]
          },
          "customActions": [
            {
              "action": "api",
              "resource": "payment-methods",
              "verb": "CREATE",
              "label": "ra.action.create",
              "icon": "Add",
              "confirm": {
                "label": "resources.payment-methods.customActions.createPaymentMethod",
                "fields": [
                  {
                    "source": "paymentMethodType",
                    "label": "Méthode de paiement",
                    "type": "static-list",
                    "choices": [
                      {
                        "id": "DIRECTDEBIT",
                        "label": "Prélèvement Automatique"
                      },
                      {
                        "id": "CHECK",
                        "label": "Chèque"
                      },
                      {
                        "id": "WIRETRANSFER",
                        "label": "Virement"
                      },
                      {
                        "id": "CARD",
                        "label": "Carte Bancaire"
                      }
                    ],
                    "validate": "required"
                  },
                  {
                    "source": "id",
                    "label": "Alias"
                  },
                  {
                    "source": "preferred",
                    "label": "Méthode préférée",
                    "type": "boolean"
                  },
                  {
                    "source": "bankCoordinates.bankName",
                    "label": "Nom de la banque",
                    "dependsOn": {
                      "paymentMethodType": "DIRECTDEBIT"
                    },
                    "validate": "required"
                  },
                  {
                    "source": "bankCoordinates.bankCode",
                    "label": "Code banque",
                    "dependsOn": {
                      "paymentMethodType": "DIRECTDEBIT"
                    },
                    "validate": "required"
                  },
                  {
                    "source": "bankCoordinates.branchCode",
                    "label": "Code guichet",
                    "dependsOn": {
                      "paymentMethodType": "DIRECTDEBIT"
                    },
                    "validate": "required"
                  },
                  {
                    "source": "bankCoordinates.accountNumber",
                    "label": "Code guichet",
                    "dependsOn": {
                      "paymentMethodType": "DIRECTDEBIT"
                    },
                    "validate": "required"
                  },
                  {
                    "source": "bankCoordinates.key",
                    "label": "Numéro de compte",
                    "dependsOn": {
                      "paymentMethodType": "DIRECTDEBIT"
                    },
                    "validate": "required"
                  },
                  {
                    "source": "bankCoordinates.bic",
                    "label": "BIC",
                    "dependsOn": {
                      "paymentMethodType": "DIRECTDEBIT"
                    },
                    "validate": "required"
                  },
                  {
                    "source": "bankCoordinates.iban",
                    "label": "IBAN",
                    "dependsOn": {
                      "paymentMethodType": "DIRECTDEBIT"
                    },
                    "validate": "required"
                  },
                  {
                    "source": "cardType",
                    "label": "Type de carte",
                    "type": "static-list",
                    "choices": [
                      {
                        "id": "VISA",
                        "label": "VISA"
                      },
                      {
                        "id": "MASTERCARD",
                        "label": "Mastercard"
                      },
                      {
                        "id": "AMERICAN_EXPRESS",
                        "label": "American express"
                      },
                      {
                        "id": "CB",
                        "label": "CB"
                      }
                    ],
                    "dependsOn": {
                      "paymentMethodType": "CARD"
                    },
                    "validate": "required"
                  },
                  {
                    "source": "cardNumber",
                    "label": "Numéro de carte",
                    "dependsOn": {
                      "paymentMethodType": "CARD"
                    },
                    "validate": "required",
                    "validate": "maxLength:19"
                  },
                  {
                    "source": "owner",
                    "label": "Titulaire",
                    "dependsOn": {
                      "paymentMethodType": "CARD"
                    },
                    "validate": "required",
                    "validate": "maxLength:19"
                  },
                  {
                    "source": "monthExpiration",
                    "label": "Mois d'expiration",
                    "dependsOn": {
                      "paymentMethodType": "CARD"
                    },
                    "validate": "required"
                  },
                  {
                    "source": "yearExpiration",
                    "label": "Année d'expiration",
                    "dependsOn": {
                      "paymentMethodType": "CARD"
                    },
                    "validate": "required"
                  }
                ]
              },
              "params": {
                "customerAccountCode": "@record.code"
              }
            }
          ]
        }
      ]
    ]
  }
}
