{
  "main": {
    "type": "SimpleList",
    "withSearch": true,
    "withExport": true,
    "withCreate": true,
    "onRowClick": "show",
    "fields": [
      { "source": "code" },
      { "source": "description" },
      { "source": "startDate", "type": "date" },
      { "source": "defaultDuration" },
      { "source": "durationUnit" },
      { "source": "disabled", "type": "boolean" }
    ]
  }
}
