{
  "GET_LIST": {
    "url": "customTable/list/EIR_OR_VOL_DISCOUNT",
    "responseContainer": "tableData.record",
    "nestedContainer": "values",
    "keyColumn": "id",
    "options": {
      "method": "POST",
      "wildcardPrefixes": {
        "profile_code": "wildcardOrIgnoreCase ",
        "description": "wildcardOrIgnoreCase ",
        "migration_code": "wildcardOrIgnoreCase "
      }
    },
    "params": {
      "fromOptionalRange valid_to": "@currentDate"
    },
    "customTableCode": "EIR_OR_VOL_DISCOUNT",
    "nullToWildcard": {
      "billing_account": "*"
    }
  },
  "CREATE": {
    "url": "customTable/createOrUpdate",
    "customTableCode": "EIR_OR_VOL_DISCOUNT",
    "wildcardToNull": {
      "billing_account": "*"
    }
  },
  "GET_ONE": {
    "url": "customTable/list/EIR_OR_VOL_DISCOUNT",
    "responseContainer": "tableData.record",
    "nestedContainer": "values",
    "keyColumn": "id",
    "options": {
      "method": "POST"
    },
    "customTableCode": "EIR_OR_VOL_DISCOUNT",
    "nullToWildcard": {
      "billing_account": "*"
    }
  },
  "UPDATE": {
    "url": "customTable/createOrUpdate",
    "customTableCode": "EIR_OR_VOL_DISCOUNT",
    "wildcardToNull": {
      "billing_account": "*"
    }
  }
}
