{
  "GET_LIST": {
    "url": "account/billingAccount/list",
    "responseContainer": "billingAccounts.billingAccount"
  },
  "GET_ONE": {
    "url": "account/billingAccount?billingAccountCode=",
    "responseContainer": "billingAccount"
  },
  "GET_MANY": {
    "url": "account/billingAccount/list",
    "responseContainer": "billingAccounts.billingAccount"
  },
  "GET_MANY_REFERENCE": {
    "url": "account/billingAccount/list?customerAccountCode=:id",
    "responseContainer": "billingAccounts.billingAccount"
  },
  "CREATE": {
    "url": "account/billingAccount"
  },
  "UPDATE": {
    "url": "account/billingAccount",
    "options": {
      "method": "PUT"
    },
    "excludeProperties": [
      "customerAccountCode",
      "customerCode",
      "name.fullName",
      "originalId"
    ]
  },
  "DELETE": {
    "url": "account/billingAccount/"
  },
  "DELETE_MANY": {
    "url": "account/billingAccount/"
  },
  "GENERATE_INVOICE": {
    "url": "invoice/generateInvoice",
    "options": {
      "method": "POST"
    },
    "bodyParams": {
      "targetType": "BillingAccount",
      "generateXML": true,
      "generatePDF": true,
      "generateAO": false
    }
  }
}
