{
  "GET_LIST": {
    "url": "customTable/list/Product_Set",
    "responseContainer": "tableData.record",
    "nestedContainer": "values",
    "keyColumn": "id",
    "options": {
      "method": "POST",
      "wildcardPrefixes": {
        "code": "wildcardOrIgnoreCase ",
        "description": "wildcardOrIgnoreCase "
      }
    },
    "customTableCode": "Product_Set"
  },
  "GET_ONE": {
    "url": "customTable/list/Product_Set",
    "responseContainer": "tableData.record",
    "nestedContainer": "values",
    "keyColumn": "id",
    "options": {
      "method": "POST"
    },
    "customTableCode": "Product_Set"
  },
  "GET_MANY": {
    "url": "customTable/list/Product_Set",
    "responseContainer": "tableData.record",
    "nestedContainer": "values",
    "keyColumn": "id",
    "options": {
      "method": "POST"
    },
    "customTableCode": "Product_Set"
  },
  "CREATE": {
    "url": "customTable/createOrUpdate",
    "customTableCode": "Product_Set"
  },
  "UPDATE": {
    "url": "customTable/createOrUpdate",
    "customTableCode": "Product_Set",
    "excludeProperties": ["active"]
  },
  "DELETE": {
    "url": "customTable",
    "customTableCode": "Product_Set"
  },
  "DELETE_MANY": {
    "url": "customTable",
    "customTableCode": "Product_Set"
  }
}
