{
  "GET_LIST": {
    "url": "filteredList/search",
    "params": {
      "classnamesOrCetCodes": "org.meveo.model.payments.CustomerAccount"
    }
  },
  "GET_ONE": {
    "url": "account/customerAccount?withAccountOperations=true&customerAccountCode=",
    "responseContainer": "customerAccount"
  },
  "GET_MANY": {
    "url": "filteredList/search",
    "params": {
      "classnamesOrCetCodes": "org.meveo.model.payments.CustomerAccount"
    }
  },
  "CREATE": {
    "url": "account/customerAccount"
  },
  "UPDATE": {
    "url": "account/customerAccount/createOrUpdate"
  },
  "DELETE": {
    "url": "account/customerAccount/"
  },
  "DELETE_MANY": {
    "url": "account/customerAccount/"
  }
}
