{
  "redirectAfterSubmit": "list",
  "main": {
    "tabs": [
      {
        "title": "Informations",
        "rows": [
          [
            {
              "source": "currencyCode",
              "validate": "required",
              "disabledOnEdit": true
            },
            {
              "source": "descriptionEn"
            }
          ]
        ]
      }
    ]
  }
}
