{
  "redirectAfterSubmit": "list",
  "main": {
    "tabs": [
      {
        "title": "Informations",
        "rows": [
          [
            {
              "source": "code",
              "validate": "required",
              "disabledOnEdit": true
            }
          ],
          [{ "source": "description" }],
          [
            {
              "source": "invoiceCategory",
              "reference": "invoice-categories",
              "label": "Invoice category",
              "validate": "required"
            }
          ],
          [
            {
              "source": "accountingCode",
              "reference": "accounting-codes",
              "label": "Accounting code"
            }
          ],
          [
            {
              "source": "taxScriptScode",
              "reference": "script-instances",
              "label": "Tax script"
            }
          ]
        ]
      }
    ]
  }
}
