{
  "GET_LIST": {
    "url": "account/userAccount/list",
    "responseContainer": "userAccounts.userAccount"
  },
  "GET_ONE": {
    "url": "account/userAccount?userAccountCode=",
    "responseContainer": "userAccount"
  },
  "GET_MANY": {
    "url": "account/userAccount",
    "responseContainer": "userAccount",
    "keyColumn": "userAccountCode"
  },
  "CREATE": {
    "url": "account/userAccount"
  },
  "UPDATE": {
    "url": "account/userAccount/createOrUpdate"
  },
  "DELETE": {
    "url": "account/userAccount/"
  },
  "DELETE_MANY": {
    "url": "account/userAccount/"
  }
}
