{
  "main": {
    "type": "dashboard",
    "rows": [
      [
        {
          "type": "SimpleWidget",
          "fields": [
            {
              "source": "name.title+name.firstName+name.lastName",
              "type": "text",
              "label": false,
              "icon": "Face"
            },
            {
              "source": "description",
              "type": "text"
            },
            {
              "source": "seller",
              "type": "text",
              "label": "Seller"
            },
            {
              "source": "address.address1+address.zipCode+address.city+address.country",
              "type": "text",
              "label": "Address",
              "icon": "AddLocation"
            },
            {
              "source": "customerCategory",
              "type": "text",
              "label": "Category"
            },
            {
              "source": "STANDARD_CUSTOMER",
              "type": "boolean",
              "label": "RAP customer"
            }
          ]
        },
        {
          "type": "ActionWidget",
          "actions": ["edit", "delete"]
        }
      ],
      [
        {
          "type": "ListWidget",
          "resource": "customer-accounts",
          "icon": "SupervisorAccount",
          "color": "orange.A200",
          "onRowClick": "show",
          "filters": {
            "customerCode": "@record.id"
          },
          "rowTextPrimary": "code",
          "rowTextSecondary": "description"
        }
      ],
      [
        {
          "type": "SimpleKPI",
          "cfCode": "NEW_TARIFF",
          "title": "Specific offer plan",
          "icon": "FeaturedPlayList",
          "color": "blueGrey.100",
          "onClick": "/customer-catalog/@record.id/show",
          "dependsOn": {
            "STANDARD_CUSTOMER": false
          }
        },
        {
          "type": "SimpleKPI",
          "resource": "subscriptions",
          "icon": "Subscriptions",
          "color": "red.500",
          "filters": {
            "customerCode": "@record.id"
          }
        },
        {
          "type": "SimpleKPI",
          "resource": "billing-invoices",
          "title": "Invoices",
          "icon": "CreditCard",
          "color": "blue.500"
        },
        {
          "type": "SimpleKPI",
          "resource": "billing-balance",
          "title": "Balance",
          "icon": "InsertChart",
          "color": "green.500"
        }
      ],
      [
        {
          "type": "DetailedListWidget",

          "content": [
            {
              "title": "Notes",
              "icon": "CardTravel",
              "color": "lightBlue.A200",
              "content": {
                "type": "SimpleTable",
                "cfCode": "NOTES",
                "roles": ["superAdministrateur"],
                "localSort": true,
                "withCreate": false,
                "isEditable": false,
                "bulkActions": true,
                "customActions": [
                  {
                    "action": "api",
                    "resource": "notes",
                    "verb": "ADD_NOTE",
                    "label": "ra.action.create",
                    "icon": "Add",
                    "confirm": {
                      "label": "resources.billing-accounts.customActions.createNote",
                      "fields": [
                        {
                          "source": "comment",
                          "type": "long-text",
                          "label": "resources.billing-accounts.customActions.fields.comment"
                        }
                      ]
                    },
                    "params": {
                      "code": "@record.id",
                      "type": "customer"
                    }
                  }
                ],
                "bulkCustomActions": [
                  {
                    "action": "api",
                    "resource": "notes",
                    "verb": "DELETE_NOTE",
                    "label": "ra.action.delete",
                    "icon": "Delete",
                    "accumulate": true,
                    "confirm": {
                      "label": "resources.billing-accounts.bulkCustomActions.deleteNote"
                    },
                    "params": {
                      "id": "@selectedItem.NOTE_ID",
                      "code": "@record.code",
                      "type": "customer"
                    }
                  }
                ],

                "fields": [
                  {
                    "source": "NOTE_ID",
                    "label": "resources.billing-accounts.customActions.fields.NOTE_ID",
                    "inForm": false,
                    "type": "number"
                  },
                  {
                    "source": "CREATED_DATE",
                    "label": "resources.billing-accounts.customActions.fields.CREATED_DATE",
                    "type": "date",
                    "showTime": true,
                    "dateFormat": "YYYY.MM.DD.hh.mm.ss",
                    "inForm": false
                  },
                  {
                    "source": "USER_NAME",
                    "label": "resources.billing-accounts.customActions.fields.USER_NAME",
                    "inForm": false
                  },
                  {
                    "source": "COMMENTS",
                    "label": "resources.billing-accounts.customActions.fields.COMMENTS"
                  }
                ]
              }
            }
          ]
        }
      ]
    ]
  }
}
