{
  "GET_LIST": {
    "url": "accountOperation/list",
    "keyColumn": "id",
    "responseContainer": "accountOperations.accountOperation",
    "params": {
      "defaultSortField": "id"
    }
  },
  "CREATE": {
    "url": "accountOperation",
    "excludeProperties": ["percent"]
  },
  "MATCH": {
    "url": "accountOperation/matchOperations"
  },
  "TRANSFER": {
    "url": "../../inbound/billingAccount/transferAccountOperation",
    "excludeProperties": ["amount", "toBillingAccount"]
  },
  "UNMATCH": {
    "url": "accountOperation/unMatchingOperations"
  }
}
