{
  "main": {
    "type": "dashboard",
    "rows": [
      [
        {
          "type": "SimpleWidget",
          "fields": [
            {
              "source": "code"
            },

            {
              "source": "description"
            }
          ]
        },
        {
          "type": "ActionWidget",
          "actions": ["edit", "delete"]
        }
      ]
    ]
  }
}
