{
  "GET_LIST": {
    "url": "v2/generic/all/taxClass",
    "keyColumn": "id",
    "responseContainer": "data"
  },
  "GET_ONE": {
    "url": "v2/generic/taxClass/",
    "responseContainer": "data"
  },
  "GET_MANY": {
    "url": "v2/generic/all/taxClass",
    "responseContainer": "data",
    "keyColumn": "id"
  },
  "CREATE": {
    "url": "v2/generic/taxClass/"
  },
  "UPDATE": {
    "url": "v2/generic/taxClass/:id",
    "options": {
      "method": "PUT"
    }
  },
  "DELETE": {
    "url": "v2/generic/taxClass/:id"
  },
  "DELETE_MANY": {
    "url": "v2/generic/taxClass"
  }
}
