{
  "GET_LIST": {
    "url": "billing/wallet/operation/list",
    "responseContainer": "walletOperations",
    "keyColummn": "id"
  },
  "GET_MANY": {
    "url": "billing/wallet/operation/list",
    "responseContainer": "walletOperations",
    "keyColummn": "id"
  },
  "GET_MANY_REFERENCE": {
    "url": "billing/wallet/operation/find",
    "responseContainer": "walletOperations",
    "keyColummn": "id",
    "bodyParams": {
      "userAccount": "@record.code"
    },
    "options": {
      "method": "POST"
    }
  }
}
