{
  "GET_LIST": {
    "url": "customEntityInstance/list/CouponInstance",
    "responseContainer": "customEntityInstance"
  },
  "GET_MANY": {
    "url": "customEntityInstance/list/CouponInstance",
    "responseContainer": "customEntityInstance"
  },
  "GET_MANY_REFERENCE": {
    "url": "velib/V1/coupon/instance/list",
    "responseContainer": "couponInstances",
    "options": {
      "method": "POST"
    }
  },
  "CREATE": {
    "url": "customEntityInstance/CouponInstance"
  },
  "UPDATE": {
    "url": "customEntityInstance/CouponInstance/",
    "options": {
      "method": "PUT"
    }
  },
  "GET_ONE": {
    "url": "customEntityInstance/CouponInstance/",
    "responseContainer": "customEntityInstance"
  },
  "DELETE": {
    "url": "customEntityInstance/CouponInstance/"
  },
  "DELETE_MANY": {
    "url": "customEntityInstance/CouponInstance/"
  }
}
