{
  "redirectAfterSubmit": "list",
  "main": {
    "rows": [
      [
        {
          "source": "code",
          "validate": "required",
          "disabledOnEdit": true
        },
        {
          "source": "description"
        },
        {
          "source": "calendarType",
          "type": "static-list",
          "choices": [
            { "id": "YEARLY" },
            { "id": "DAILY" },
            { "id": "PERIOD" },
            { "id": "INTERVAL" },
            { "id": "INTERSECT" },
            { "id": "UNION" },
            { "id": "BANKING" }
          ]
        }
      ]
    ]
  }
}
