{
  "redirectAfterSubmit": "list",
  "main": {
    "rows": [
      [
        { "source": "code", "validate": "required" },
        { "source": "description" },
        {
          "source": "isCompany",
          "type": "boolean"
        }
      ]
    ]
  }
}
