{
  "GET_LIST": {
    "url": "customTable/list/EIR_U_TARIFF_PLAN_MAP",
    "responseContainer": "tableData.record",
    "nestedContainer": "values",
    "keyColumn": "id",
    "options": {
      "method": "POST"
    },
    "customTableCode": "EIR_U_TARIFF_PLAN_MAP"
  },
  "CREATE": {
    "url": "customTable/createOrUpdate",
    "customTableCode": "EIR_U_TARIFF_PLAN_MAP"
  },
  "GET_ONE": {
    "url": "customTable/list/EIR_U_TARIFF_PLAN_MAP",
    "responseContainer": "tableData.record",
    "nestedContainer": "values",
    "keyColumn": "id",
    "options": {
      "method": "POST"
    },
    "customTableCode": "EIR_U_TARIFF_PLAN_MAP"
  },
  "UPDATE": {
    "url": "customTable/createOrUpdate",
    "customTableCode": "EIR_U_TARIFF_PLAN_MAP"
  }
}
