{
  "main": {
    "type": "SimpleList",
    "withSearch": true,
    "withExport": true,
    "withCreate": true,
    "withUpload": true,
    "onRowClick": "show",
    "fields": [
      { "source": "code" },
      {
        "source": "customerCode",
        "reference": "customers",
        "linkType": "show"
      },
      { "source": "description" },
      {
        "source": "name.fullName"
      },
      {
        "source": "address.address1"
      },

      {
        "source": "language"
      },
      {
        "source": "currency"
      }
    ]
  }
}
