{
  "main": {
    "type": "SimpleList",
    "withSearch": true,
    "withExport": true,
    "withCreate": true,
    "onRowClick": "show",
    "fields": [{ "source": "code" }, { "source": "description" }]
  }
}
