{
  "GET_LIST": {
    "url": "catalog/offerTemplate/list",
    "responseContainer": "offerTemplate"
  },
  "GET_ONE": {
    "url": "catalog/offerTemplate?loadOfferServiceTemplate=true&loadServiceChargeTemplate=true&offerTemplateCode=",
    "responseContainer": "offerTemplate"
  },
  "GET_MANY": {
    "url": "catalog/offerTemplate/list",
    "responseContainer": "offerTemplate"
  },
  "CREATE": {
    "url": "catalogManagement/createOfferFromBOM",
    "shouldTransformCfs": true
  },
  "DELETE": {
    "url": "catalog/offerTemplate/"
  },
  "DELETE_MANY": {
    "url": "catalog/offerTemplate/"
  },
  "UPDATE": {
    "url": "catalog/offerTemplate/createOrUpdate",
    "wrapProperties": [
      "offerServiceTemplate:offerServiceTemplate.serviceTemplate"
    ]
  }
}
