{
  "main": {
    "type": "dashboard",
    "rows": [
      [
        {
          "type": "SimpleWidget",
          "fields": [
            {
              "source": "code",
              "label": "Code"
            },
            {
              "source": "name",
              "label": "Name"
            },
            {
              "source": "lifeCycleStatus",
              "type": "status",
              "label": "Status"
            },
            {
              "source": "offerTemplateCategory[0].description",
              "label": "Category"
            },
            {
              "source": "description",
              "label": "Description"
            },
            {
              "source": "validFrom+validTo",
              "type": "date",
              "label": "Valid From / To"
            }
          ]
        },
        {
          "type": "ActionWidget",
          "actions": ["edit"]
        }
      ],
      [
        {
          "type": "DetailedListWidget",

          "content": [
            {
              "title": "Scenarios",
              "icon": "CardTravel",
              "color": "orange.A200",
              "content": {
                "type": "SimpleTable",
                "source": "offerServiceTemplate",
                "containerProperty": "serviceTemplate",
                "fields": [
                  {
                    "source": "code",
                    "label": "Code"
                  },
                  {
                    "source": "description",
                    "label": "Description"
                  }
                ],
                "expand": {
                  "type": "SimpleTable",
                  "source": "serviceChargeTemplateRecurrings.serviceChargeTemplateRecurring+serviceChargeTemplateSubscriptions.serviceChargeTemplateSubscription+serviceChargeTemplateUsages.serviceChargeTemplateUsage",
                  "fields": [
                    {
                      "source": "code",
                      "reference": "charges",
                      "referenceField": "code",
                      "label": "Code"
                    },
                    {
                      "source": "code",
                      "reference": "charges",
                      "referenceField": "description",
                      "label": "Description"
                    }
                  ]
                },
                "rowsPerPage": 5,
                "rowsPerPageOptions": [5, 15, 25]
              }
            },
            {
              "title": "Services",
              "icon": "Book",
              "color": "lightBlue.A200",
              "content": {
                "type": "SimpleTable",
                "cfCode": "NEW_CATALOG",
                "withImport": "csv",
                "withCreate": true,
                "isEditable": true,
                "withExport": true,
                "editableVersions": ["last"],
                "fields": [
                  {
                    "source": "BILL_CODE",
                    "label": "Service",
                    "validate": "required",
                    "disabledOnEdit": true,
                    "noEmptyLabel": true
                  },
                  {
                    "source": "CHARGE_TYPE",
                    "label": "Charge type",
                    "type": "static-list",
                    "validate": "required",
                    "choices": [
                      {
                        "id": "O",
                        "label": "One shot"
                      },
                      {
                        "id": "R",
                        "label": "Recurring"
                      },
                      {
                        "id": "OR",
                        "label": "One shot / Recurring"
                      }
                    ]
                  },
                  {
                    "source": "DESCRIPTION",
                    "label": "Description",
                    "noEmptyLabel": true
                  },
                  {
                    "source": "SERVICE_TYPE",
                    "label": "Service type",
                    "noEmptyLabel": true
                  },
                  {
                    "source": "CALENDAR",
                    "label": "Calendar",
                    "reference": "calendar-periods",
                    "referenceField": "description",
                    "noEmptyLabel": true
                  },
                  {
                    "source": "IN_ADVANCE",
                    "label": "In advance",
                    "type": "boolean",
                    "choices": ["false", "true"]
                  },
                  {
                    "source": "MAX_QUANTITY",
                    "label": "Max qty",
                    "type": "number",
                    "noEmptyLabel": true
                  },
                  {
                    "source": "INV_CAT",
                    "label": "Invoice category",
                    "reference": "invoice-categories",
                    "referenceField": "code"
                  },
                  {
                    "source": "TAX_CLASS",
                    "label": "Tax class",
                    "reference": "tax-classes",
                    "referenceField": "code"
                  },
                  {
                    "source": "PRODUCT_SET",
                    "label": "Product Set",
                    "reference": "product-sets",
                    "referenceField": "code"
                  },
                  {
                    "source": "MIGRATION_CODE",
                    "label": "Migration Code",
                    "noEmptyLabel": true
                  },
                  {
                    "source": "SUBSCRIBER_PREFIX",
                    "label": "Subscriber Prefix",
                    "reference": "subscriber-prefixes",
                    "referenceField": "code"
                  }
                ],
                "rowsPerPage": 25,
                "rowsPerPageOptions": [25, 50, 100]
              }
            },
            {
              "title": "Tariffs",
              "icon": "AttachMoney",
              "color": "lightGreen.A200",
              "content": {
                "type": "SimpleTable",
                "cfCode": "NEW_TARIFF",
                "withCreate": true,
                "isEditable": true,
                "fields": [
                  {
                    "source": "BILL_CODE",
                    "label": "Service",
                    "disabledOnEdit": true,
                    "noEmptyLabel": true
                  },
                  {
                    "source": "CHARGE_TYPE",
                    "label": "Charge type",
                    "type": "static-list",
                    "choices": [
                      {
                        "id": "O",
                        "label": "One shot"
                      },
                      {
                        "id": "R",
                        "label": "Recurring"
                      },
                      {
                        "id": "OR",
                        "label": "One shot / Recurring"
                      }
                    ],
                    "disabledOnEdit": true,
                    "noEmptyLabel": true
                  },
                  {
                    "source": "ACTION_QUALIFIER",
                    "label": "Action qualifier",
                    "reference": "action-qualifiers",
                    "disabledOnEdit": true,
                    "noEmptyLabel": true
                  },
                  {
                    "source": "DENSITY",
                    "reference": "densities",
                    "label": "Density",
                    "disabledOnEdit": true
                  },
                  {
                    "source": "REGION",
                    "reference": "regions",
                    "label": "Region",
                    "disabledOnEdit": true
                  },
                  {
                    "source": "SLA",
                    "reference": "service-level-agreements",
                    "label": "SLA",
                    "disabledOnEdit": true
                  },
                  {
                    "source": "COS",
                    "reference": "class-of-services",
                    "label": "Class of service",
                    "disabledOnEdit": true
                  },
                  {
                    "source": "EF",
                    "reference": "expedited-factors",
                    "label": "EF",
                    "disabledOnEdit": true
                  },
                  {
                    "source": "AF",
                    "reference": "assured-factors",
                    "label": "AF",
                    "disabledOnEdit": true
                  },
                  {
                    "source": "EXCHANGE_TYPE",
                    "reference": "exchange-types",
                    "label": "Exchange type",
                    "disabledOnEdit": true
                  },
                  {
                    "source": "START_DATE",
                    "label": "Start date",
                    "type": "date",
                    "dateFormat": "DD/MM/YYYY",
                    "disabledOnEdit": true
                  },
                  {
                    "source": "END_DATE",
                    "label": "End date",
                    "type": "date",
                    "dateFormat": "DD/MM/YYYY"
                  },
                  {
                    "source": "DESCRIPTION",
                    "label": "Description"
                  },
                  {
                    "source": "TARIFF",
                    "label": "Tariff",
                    "type": "number",
                    "locales": "en-GB",
                    "options": {
                      "style": "currency",
                      "currency": "EUR"
                    },
                    "noEmptyLabel": true,
                    "highlightEmptyCell": true
                  },
                  {
                    "source": "GL_CODE",
                    "label": "GL Code",
                    "reference": "accounting-codes",
                    "referenceField": "code",
                    "noEmptyLabel": true,
                    "highlightEmptyCell": true
                  }
                ]
              }
            }
          ]
        }
      ]
    ]
  }
}
