{
  "GET_LIST": {
    "url": "customEntityInstance/list/TAR_ACTION_QUALIFIER",
    "responseContainer": "customEntityInstance"
  },
  "GET_ONE": {
    "url": "customEntityInstance/TAR_ACTION_QUALIFIER/",
    "responseContainer": "customEntityInstance"
  },
  "GET_MANY": {
    "url": "customEntityInstance/list/TAR_ACTION_QUALIFIER",
    "responseContainer": "customEntityInstance"
  },
  "CREATE": {
    "url": "customEntityInstance/TAR_ACTION_QUALIFIER"
  },
  "UPDATE": {
    "url": "customEntityInstance/TAR_ACTION_QUALIFIER/",
    "options": {
      "method": "PUT"
    }
  },
  "DELETE": {
    "url": "customEntityInstance/TAR_ACTION_QUALIFIER/"
  },
  "DELETE_MANY": {
    "url": "customEntityInstance/TAR_ACTION_QUALIFIER/"
  }
}
