{
  "main": {
    "type": "SimpleList",
    "withSearch": false,
    "withExport": false,
    "withCreate": true,
    "onRowClick": "show",
    "fields": [
      {
        "source": "code"
      },
      {
        "source": "description"
      }
    ]
  }
}
